…
### 1.1.1 Import data

Code

``` r
gdp <- tidyquant::tq_get(
  x    = "NGDPRNSAXDCMXQ",
  get  = "economic.data",
  from = "1997-01-01"
)

gdp
```

    # A tibble: 116 × 3
       symbol         date          price
       <chr>          <date>        <dbl>
     1 NGDPRNSAXDCMXQ 1997-01-01 3702398.
     2 NGDPRNSAXDCMXQ 1997-04-01 3896084.
     3 NGDPRNSAXDCMXQ 1997-07-01 3906063 
     4 NGDPRNSAXDCMXQ 1997-10-01 4038358.
     5 NGDPRNSAXDCMXQ 1998-01-01 4084304.
     6 NGDPRNSAXDCMXQ 1998-04-01 4134899.
     7 NGDPRNSAXDCMXQ 1998-07-01 4138200.
     8 NGDPRNSAXDCMXQ 1998-10-01 4146841.
     9 NGDPRNSAXDCMXQ 1999-01-01 4176243.
    10 NGDPRNSAXDCMXQ 1999-04-01 4232280.
    # ℹ 106 more rows
…
